<?xml version="1.0" encoding="utf-8"?>
<!-- Generator: Adobe Illustrator 19.0.0, SVG Export Plug-In . SVG Version: 6.00 Build 0)  -->
<svg xmlns="http://www.w3.org/2000/svg" xmlns:xlink="http://www.w3.org/1999/xlink" version="1.1" x="0px" y="0px" viewBox="0 0 19.1 20.6" style="enable-background:new 0 0 19.1 20.6;" xml:space="preserve">
<style type="text/css">
	.st0{fill-rule:evenodd;clip-rule:evenodd;fill:#DC1254;}
	.st1{fill-rule:evenodd;clip-rule:evenodd;fill:#00305E;}
</style>
<g id="Layer_3">
	<path class="st0" d="M17.5,16.8c-2.5-0.9-5.2-2-7.7-3.3v3.7c2,0.6,4.2,1,6.2,1C16.6,17.8,17.1,17.4,17.5,16.8L17.5,16.8z M9.9,20.6   v-0.4c1,0.1,2,0,3.1-0.1C11.9,20.4,10.9,20.6,9.9,20.6L9.9,20.6z M9.9,20v-2.1c2.3,0.6,4.5,0.9,5.8,0.7c0,0,0,0,0,0   c-0.7,0.5-1.5,1-2.2,1.2C12.4,20.1,11.2,20.1,9.9,20z M9.9,13.5c-2-1-3.9-2.1-5.6-3.3l0.8-1.4C3.4,8.7,1.7,8.6,0,8.5   c0.3,2.1,0.8,4.2,1.6,6.3l0.8-1.3c1.9,1.4,4.6,2.9,7.6,3.8V13.5L9.9,13.5z M9.9,17.9V20c-1.8-0.2-3.8-0.8-5.9-2   c0.3-0.6,0.7-1.3,1.1-2.2C6.5,16.7,8.2,17.4,9.9,17.9L9.9,17.9z M9.9,20.2c-0.8-0.1-1.6-0.2-2.4-0.4C7.3,20,7,20.2,6.7,20.2   c0,0,0,0,0,0c1,0.3,2.1,0.4,3.2,0.4V20.2z"/>
</g>
<g id="Layer_4">
	<path class="st1" d="M9.2,7.1c2,1,3.9,2.1,5.6,3.3L14,11.9c1.7,0.1,3.4,0.2,5.1,0.3c-0.3-2.1-0.8-4.2-1.6-6.3l-0.8,1.3   c-1.9-1.4-4.6-2.9-7.6-3.8V7.1L9.2,7.1z M9.2,2.7V0.7c1.8,0.2,3.8,0.8,5.9,2c-0.3,0.6-0.7,1.3-1.1,2.2C12.5,3.9,10.8,3.2,9.2,2.7   L9.2,2.7z M9.2,0.5c0.8,0.1,1.6,0.2,2.4,0.4c0.2-0.2,0.5-0.4,0.8-0.4c0,0,0,0,0,0C11.4,0.1,10.3,0,9.2,0V0.5z M1.5,3.8   c2.5,0.9,5.2,2,7.7,3.3V3.4c-2-0.6-4.2-1-6.2-1C2.4,2.8,2,3.3,1.5,3.8L1.5,3.8z M9.2,0v0.4c-1-0.1-2,0-3.1,0.1C7.2,0.2,8.2,0,9.2,0   L9.2,0z M9.2,0.7v2.1C6.9,2.1,4.7,1.8,3.3,2.1c0,0,0,0,0,0c0.7-0.5,1.4-1,2.2-1.2C6.6,0.6,7.9,0.5,9.2,0.7z"/>
</g>
</svg>
